# Fdb version 3
["pdflatex"] 1617575148 "/home/undefined/HS-Anhalt/s3-webgis/03_Abschlussprojekt/025_Abschlussprojekt/Modulabschluss.tex" "/home/undefined/HS-Anhalt/s3-webgis/03_Abschlussprojekt/025_Abschlussprojekt/Modulabschluss.pdf" "Modulabschluss" 1617575148
  "/etc/texmf/web2c/texmf.cnf" 1617468669 475 c0e671620eb5563b2130f56340a5fde8 ""
  "/home/undefined/.texlive2019/texmf-var/fonts/pk/ljfour/jknappen/ec/ecbx1000.600pk" 1617470081 25396 822359d7ed13e99702972a221b647181 ""
  "/home/undefined/.texlive2019/texmf-var/fonts/pk/ljfour/jknappen/ec/ecbx1200.600pk" 1617472687 31928 2fd7d6f5678d0911d59da2eeb68e87fc ""
  "/home/undefined/.texlive2019/texmf-var/fonts/pk/ljfour/jknappen/ec/ecbx1440.600pk" 1617470082 40112 8168ba5fe25bc7f946472275d6bbc1c1 ""
  "/home/undefined/.texlive2019/texmf-var/fonts/pk/ljfour/jknappen/ec/ecrm0600.600pk" 1617470079 14860 352153c383ff80a0f7a5b9e912768c32 ""
  "/home/undefined/.texlive2019/texmf-var/fonts/pk/ljfour/jknappen/ec/ecrm0700.600pk" 1617470083 16976 6808a3baffbe90ccebe83bcd237c952e ""
  "/home/undefined/.texlive2019/texmf-var/fonts/pk/ljfour/jknappen/ec/ecrm0800.600pk" 1617470078 19056 86a4fcb5cc8b8e5c71e7438c4ef9b1d3 ""
  "/home/undefined/.texlive2019/texmf-var/fonts/pk/ljfour/jknappen/ec/ecrm1000.600pk" 1617470084 23784 4aadadc7f89934df12014680a63408a4 ""
  "/home/undefined/.texlive2019/texmf-var/fonts/pk/ljfour/jknappen/ec/ecrm1200.600pk" 1617470085 28416 8fd68abe19f7482be02a020994565f14 ""
  "/home/undefined/.texlive2019/texmf-var/fonts/pk/ljfour/jknappen/ec/ecrm1728.600pk" 1617470086 42496 af02a2652c10643c977f92d270896e69 ""
  "/home/undefined/.texlive2019/texmf-var/fonts/pk/ljfour/jknappen/ec/ectt0800.600pk" 1617470077 15172 70f9f955e1652c20136d9d3228d70a7f ""
  "/home/undefined/.texlive2019/texmf-var/fonts/pk/ljfour/jknappen/ec/ectt1000.600pk" 1617470080 20008 291271fefd10ab0c51c05818e13f36e8 ""
  "/home/undefined/.texlive2019/texmf-var/fonts/pk/ljfour/jknappen/ec/tcrm1000.600pk" 1617574603 11524 9afd448a15192853d3256ed01784deba ""
  "/home/undefined/HS-Anhalt/s3-webgis/03_Abschlussprojekt/025_Abschlussprojekt/Modulabschluss.aux" 1617575148 3397 8182b1dd3784ca7c1b5992ce3adb1133 ""
  "/home/undefined/HS-Anhalt/s3-webgis/03_Abschlussprojekt/025_Abschlussprojekt/Modulabschluss.tex" 1617575148 13706 93ac90859507ff2debf46fb7286eba2d ""
  "/usr/share/texlive/texmf-dist/fonts/map/fontname/texfonts.map" 1577235249 3524 cb3e574dea2d1052e39280babc910dc8 ""
  "/usr/share/texlive/texmf-dist/fonts/tfm/jknappen/ec/ecbx1000.tfm" 1136768653 3584 2d666ecf6d466d8b007246bc2f94d9da ""
  "/usr/share/texlive/texmf-dist/fonts/tfm/jknappen/ec/ecbx1200.tfm" 1136768653 3584 402da0b29eafbad07963b1224b222f18 ""
  "/usr/share/texlive/texmf-dist/fonts/tfm/jknappen/ec/ecbx1440.tfm" 1136768653 3584 13049b61b922a28b158a38aeff75ee9b ""
  "/usr/share/texlive/texmf-dist/fonts/tfm/jknappen/ec/ecrm0600.tfm" 1136768653 3584 291a5713401683441e0a8c8f4417b17b ""
  "/usr/share/texlive/texmf-dist/fonts/tfm/jknappen/ec/ecrm0700.tfm" 1136768653 3584 cf973739aac7ab6247f9150296af7954 ""
  "/usr/share/texlive/texmf-dist/fonts/tfm/jknappen/ec/ecrm0800.tfm" 1136768653 3584 49064b465390a8e316a3c8417a050403 ""
  "/usr/share/texlive/texmf-dist/fonts/tfm/jknappen/ec/ecrm1000.tfm" 1136768653 3584 adb004a0c8e7c46ee66cad73671f37b4 ""
  "/usr/share/texlive/texmf-dist/fonts/tfm/jknappen/ec/ecrm1200.tfm" 1136768653 3584 f80ddd985bd00e29e9a6047ebd9d4781 ""
  "/usr/share/texlive/texmf-dist/fonts/tfm/jknappen/ec/ecrm1440.tfm" 1136768653 3584 3169d30142b88a27d4ab0e3468e963a2 ""
  "/usr/share/texlive/texmf-dist/fonts/tfm/jknappen/ec/ecrm1728.tfm" 1136768653 3584 3c76ccb63eda935a68ba65ba9da29f1a ""
  "/usr/share/texlive/texmf-dist/fonts/tfm/jknappen/ec/ectt0800.tfm" 1136768653 1536 0b0b8ca286de6a006b681926403f35cd ""
  "/usr/share/texlive/texmf-dist/fonts/tfm/jknappen/ec/ectt1000.tfm" 1136768653 1536 06717a2b50de47d4087ac0e6cd759455 ""
  "/usr/share/texlive/texmf-dist/fonts/tfm/jknappen/ec/tcrm1000.tfm" 1136768653 1536 e07581a4bb3136ece9eeb4c3ffab8233 ""
  "/usr/share/texlive/texmf-dist/fonts/tfm/public/amsfonts/cmextra/cmex7.tfm" 1246382020 1004 54797486969f23fa377b128694d548df ""
  "/usr/share/texlive/texmf-dist/fonts/tfm/public/amsfonts/cmextra/cmex8.tfm" 1246382020 988 bdf658c3bfc2d96d3c8b02cfc1c94c20 ""
  "/usr/share/texlive/texmf-dist/fonts/tfm/public/amsfonts/symbols/msam10.tfm" 1246382020 916 f87d7c45f9c908e672703b83b72241a3 ""
  "/usr/share/texlive/texmf-dist/fonts/tfm/public/amsfonts/symbols/msam5.tfm" 1246382020 924 9904cf1d39e9767e7a3622f2a125a565 ""
  "/usr/share/texlive/texmf-dist/fonts/tfm/public/amsfonts/symbols/msam7.tfm" 1246382020 928 2dc8d444221b7a635bb58038579b861a ""
  "/usr/share/texlive/texmf-dist/fonts/tfm/public/amsfonts/symbols/msbm10.tfm" 1246382020 908 2921f8a10601f252058503cc6570e581 ""
  "/usr/share/texlive/texmf-dist/fonts/tfm/public/amsfonts/symbols/msbm5.tfm" 1246382020 940 75ac932a52f80982a9f8ea75d03a34cf ""
  "/usr/share/texlive/texmf-dist/fonts/tfm/public/amsfonts/symbols/msbm7.tfm" 1246382020 940 228d6584342e91276bf566bcf9716b83 ""
  "/usr/share/texlive/texmf-dist/fonts/tfm/public/cm/cmex10.tfm" 1136768653 992 662f679a0b3d2d53c1b94050fdaa3f50 ""
  "/usr/share/texlive/texmf-dist/fonts/tfm/public/cm/cmmi12.tfm" 1136768653 1524 4414a8315f39513458b80dfc63bff03a ""
  "/usr/share/texlive/texmf-dist/fonts/tfm/public/cm/cmmi6.tfm" 1136768653 1512 f21f83efb36853c0b70002322c1ab3ad ""
  "/usr/share/texlive/texmf-dist/fonts/tfm/public/cm/cmmi8.tfm" 1136768653 1520 eccf95517727cb11801f4f1aee3a21b4 ""
  "/usr/share/texlive/texmf-dist/fonts/tfm/public/cm/cmr12.tfm" 1136768653 1288 655e228510b4c2a1abe905c368440826 ""
  "/usr/share/texlive/texmf-dist/fonts/tfm/public/cm/cmr6.tfm" 1136768653 1300 b62933e007d01cfd073f79b963c01526 ""
  "/usr/share/texlive/texmf-dist/fonts/tfm/public/cm/cmr8.tfm" 1136768653 1292 21c1c5bfeaebccffdb478fd231a0997d ""
  "/usr/share/texlive/texmf-dist/fonts/tfm/public/cm/cmsy10.tfm" 1136768653 1124 6c73e740cf17375f03eec0ee63599741 ""
  "/usr/share/texlive/texmf-dist/fonts/tfm/public/cm/cmsy6.tfm" 1136768653 1116 933a60c408fc0a863a92debe84b2d294 ""
  "/usr/share/texlive/texmf-dist/fonts/tfm/public/cm/cmsy8.tfm" 1136768653 1120 8b7d695260f3cff42e636090a8002094 ""
  "/usr/share/texlive/texmf-dist/fonts/tfm/public/latex-fonts/lasy6.tfm" 1136768653 520 4889cce2180234b97cad636b6039c722 ""
  "/usr/share/texlive/texmf-dist/tex/context/base/mkii/supp-pdf.mkii" 1461363279 71627 94eb9990bed73c364d7f53f960cc8c5b ""
  "/usr/share/texlive/texmf-dist/tex/generic/atbegshi/atbegshi.sty" 1575674566 24708 5584a51a7101caf7e6bbf1fc27d8f7b1 ""
  "/usr/share/texlive/texmf-dist/tex/generic/babel/babel.def" 1581719732 87344 ec128793fb5196bbcc1741e5366ddac1 ""
  "/usr/share/texlive/texmf-dist/tex/generic/babel/babel.sty" 1581719732 18844 909add1631725af40d27125357ea816e ""
  "/usr/share/texlive/texmf-dist/tex/generic/babel/nil.ldf" 1581719732 1591 197370f5581711a601a8e9ab39d284b1 ""
  "/usr/share/texlive/texmf-dist/tex/generic/babel/switch.def" 1581719732 15529 e761dc130df77f0ce9717a25d1b52a95 ""
  "/usr/share/texlive/texmf-dist/tex/generic/babel/txtbabel.def" 1580769195 5220 42a6518b499d20676051f269c61f4d9a ""
  "/usr/share/texlive/texmf-dist/tex/generic/bigintcalc/bigintcalc.sty" 1576625341 40635 c40361e206be584d448876bba8a64a3b ""
  "/usr/share/texlive/texmf-dist/tex/generic/bitset/bitset.sty" 1576016050 33961 6b5c75130e435b2bfdb9f480a09a39f9 ""
  "/usr/share/texlive/texmf-dist/tex/generic/etexcmds/etexcmds.sty" 1576625273 7734 b98cbb34c81f667027c1e3ebdbfce34b ""
  "/usr/share/texlive/texmf-dist/tex/generic/gettitlestring/gettitlestring.sty" 1576625223 8371 9d55b8bd010bc717624922fb3477d92e ""
  "/usr/share/texlive/texmf-dist/tex/generic/iftex/iftex.sty" 1573336935 6902 30fdaf7dc5636b8e3afa306210c45cae ""
  "/usr/share/texlive/texmf-dist/tex/generic/iftex/ifvtex.sty" 1572645307 1057 525c2192b5febbd8c1f662c9468335bb ""
  "/usr/share/texlive/texmf-dist/tex/generic/infwarerr/infwarerr.sty" 1575499628 8356 7bbb2c2373aa810be568c29e333da8ed ""
  "/usr/share/texlive/texmf-dist/tex/generic/intcalc/intcalc.sty" 1576625065 31769 002a487f55041f8e805cfbf6385ffd97 ""
  "/usr/share/texlive/texmf-dist/tex/generic/kvdefinekeys/kvdefinekeys.sty" 1576878844 5412 d5a2436094cd7be85769db90f29250a6 ""
  "/usr/share/texlive/texmf-dist/tex/generic/kvsetkeys/kvsetkeys.sty" 1576624944 13807 952b0226d4efca026f0e19dd266dcc22 ""
  "/usr/share/texlive/texmf-dist/tex/generic/ltxcmds/ltxcmds.sty" 1576624883 18552 1e1cc7b75da0dfaacce7cdcb27d306bf ""
  "/usr/share/texlive/texmf-dist/tex/generic/pdfescape/pdfescape.sty" 1576015897 19007 15924f7228aca6c6d184b115f4baa231 ""
  "/usr/share/texlive/texmf-dist/tex/generic/ulem/ulem.sty" 1578692523 15682 94f55b803e160cf7fb6e4d77d07cfe1d ""
  "/usr/share/texlive/texmf-dist/tex/generic/uniquecounter/uniquecounter.sty" 1576624663 7008 f92eaa0a3872ed622bbf538217cd2ab7 ""
  "/usr/share/texlive/texmf-dist/tex/latex/amsfonts/amsfonts.sty" 1359763108 5949 3f3fd50a8cc94c3d4cbf4fc66cd3df1c ""
  "/usr/share/texlive/texmf-dist/tex/latex/amsfonts/amssymb.sty" 1359763108 13829 94730e64147574077f8ecfea9bb69af4 ""
  "/usr/share/texlive/texmf-dist/tex/latex/amsfonts/umsa.fd" 1359763108 961 6518c6525a34feb5e8250ffa91731cff ""
  "/usr/share/texlive/texmf-dist/tex/latex/amsfonts/umsb.fd" 1359763108 961 d02606146ba5601b5645f987c92e6193 ""
  "/usr/share/texlive/texmf-dist/tex/latex/amsmath/amsbsy.sty" 1523134290 2211 ca7ce284ab93c8eecdc6029dc5ccbd73 ""
  "/usr/share/texlive/texmf-dist/tex/latex/amsmath/amsgen.sty" 1523134290 4161 7f6eb9092061a11f87d08ed13515b48d ""
  "/usr/share/texlive/texmf-dist/tex/latex/amsmath/amsmath.sty" 1580683321 85660 baee036978c7a91f4e2bba43f05e5945 ""
  "/usr/share/texlive/texmf-dist/tex/latex/amsmath/amsopn.sty" 1523134290 4116 32e6abd27229755a83a8b7f18e583890 ""
  "/usr/share/texlive/texmf-dist/tex/latex/amsmath/amstext.sty" 1523134290 2432 8ff93b1137020e8f21930562a874ae66 ""
  "/usr/share/texlive/texmf-dist/tex/latex/atveryend/atveryend.sty" 1576191570 19336 ce7ae9438967282886b3b036cfad1e4d ""
  "/usr/share/texlive/texmf-dist/tex/latex/auxhook/auxhook.sty" 1576625391 3935 57aa3c3e203a5c2effb4d2bd2efbc323 ""
  "/usr/share/texlive/texmf-dist/tex/latex/base/article.cls" 1580683321 20023 e427dd9e17e239bf926ef3aab67fe35e ""
  "/usr/share/texlive/texmf-dist/tex/latex/base/fontenc.sty" 1581632200 4947 0c2888dd88121ae675fc6e82213623ba ""
  "/usr/share/texlive/texmf-dist/tex/latex/base/inputenc.sty" 1580683321 5050 8933a39ad74377accd18991c5eb90c58 ""
  "/usr/share/texlive/texmf-dist/tex/latex/base/size10.clo" 1580683321 8446 9874cccac5fee462272c582807dbbf56 ""
  "/usr/share/texlive/texmf-dist/tex/latex/base/t1cmtt.fd" 1580683321 2444 92c1f2a3fb5fbd5ac60f99eac55c9b29 ""
  "/usr/share/texlive/texmf-dist/tex/latex/caption/caption.sty" 1578175482 57350 70b0c251b0022f1db12ad7dd4c1aa547 ""
  "/usr/share/texlive/texmf-dist/tex/latex/caption/caption3.sty" 1578175482 62012 5e9d40ecd926a6f500919e4c7e1480de ""
  "/usr/share/texlive/texmf-dist/tex/latex/enumitem/enumitem.sty" 1561238569 51697 f8f08183cd2080d9d18a41432d651dfb ""
  "/usr/share/texlive/texmf-dist/tex/latex/epstopdf-pkg/epstopdf-base.sty" 1579991033 13886 d1306dcf79a944f6988e688c1785f9ce ""
  "/usr/share/texlive/texmf-dist/tex/latex/fancyhdr/fancyhdr.sty" 1548974385 11128 a53805799bebfed6358fc1658a18e41f ""
  "/usr/share/texlive/texmf-dist/tex/latex/float/float.sty" 1137110151 6749 16d2656a1984957e674b149555f1ea1d ""
  "/usr/share/texlive/texmf-dist/tex/latex/geometry/geometry.sty" 1578002852 41601 9cf6c5257b1bc7af01a58859749dd37a ""
  "/usr/share/texlive/texmf-dist/tex/latex/graphics-cfg/graphics.cfg" 1465944070 1224 978390e9c2234eab29404bc21b268d1e ""
  "/usr/share/texlive/texmf-dist/tex/latex/graphics-def/pdftex.def" 1515537368 17334 520b9b85ad8a2a48eda3f643e27a5179 ""
  "/usr/share/texlive/texmf-dist/tex/latex/graphics/graphics.sty" 1580683321 16932 04729abe63b66ec59ea56edcd722b058 ""
  "/usr/share/texlive/texmf-dist/tex/latex/graphics/graphicx.sty" 1580683321 9067 1b996612394a52e1efe89c8bfe8a5892 ""
  "/usr/share/texlive/texmf-dist/tex/latex/graphics/keyval.sty" 1580683321 2590 e3b24ff953e5b58d924f163d25380312 ""
  "/usr/share/texlive/texmf-dist/tex/latex/graphics/trig.sty" 1580683321 3976 d7fa7d81d2870d509d25b17d0245e735 ""
  "/usr/share/texlive/texmf-dist/tex/latex/hycolor/hycolor.sty" 1580250785 17914 4c28a13fc3d975e6e81c9bea1d697276 ""
  "/usr/share/texlive/texmf-dist/tex/latex/hyperref/hpdftex.def" 1579642962 50630 3d9728faf8630190cf601ce2cbe470d9 ""
  "/usr/share/texlive/texmf-dist/tex/latex/hyperref/hyperref.sty" 1579642962 238752 60dd338d71b6a4ab2192131f73dc908b ""
  "/usr/share/texlive/texmf-dist/tex/latex/hyperref/nameref.sty" 1579642962 13244 0070bcab7b5a88187847128d22faf4d8 ""
  "/usr/share/texlive/texmf-dist/tex/latex/hyperref/pd1enc.def" 1579642962 14134 32b36577d311ddb6522413c7581ee968 ""
  "/usr/share/texlive/texmf-dist/tex/latex/kvoptions/kvoptions.sty" 1575152344 22520 c4c2dab203104295e1e618be7e5c0f5b ""
  "/usr/share/texlive/texmf-dist/tex/latex/l3backend/l3backend-pdfmode.def" 1580854751 25404 9d60f463a00d154207ec0048dee27cf0 ""
  "/usr/share/texlive/texmf-dist/tex/latex/latexconfig/epstopdf-sys.cfg" 1279039959 678 4792914a8f45be57bb98413425e4c7af ""
  "/usr/share/texlive/texmf-dist/tex/latex/letltxmacro/letltxmacro.sty" 1575499565 5766 13a9e8766c47f30327caf893ece86ac8 ""
  "/usr/share/texlive/texmf-dist/tex/latex/pdftexcmds/pdftexcmds.sty" 1574631863 19963 36fd8e818f9f0f32e2db8413d4970122 ""
  "/usr/share/texlive/texmf-dist/tex/latex/refcount/refcount.sty" 1576624809 9878 9e94e8fa600d95f9c7731bb21dfb67a4 ""
  "/usr/share/texlive/texmf-dist/tex/latex/rerunfilecheck/rerunfilecheck.sty" 1575674187 9715 b051d5b493d9fe5f4bc251462d039e5f ""
  "/usr/share/texlive/texmf-dist/tex/latex/titlesec/titlesec.sty" 1571259403 48596 2b6a95da931c07a430b1a61904aaa42d ""
  "/usr/share/texlive/texmf-dist/tex/latex/url/url.sty" 1388531844 12796 8edb7d69a20b857904dd0ea757c14ec9 ""
  "/usr/share/texlive/texmf-dist/web2c/texmf.cnf" 1581979058 38841 ce3692aa899bb693b90b87eaa5d4d84e ""
  "/usr/share/texmf/web2c/texmf.cnf" 1581979058 38841 ce3692aa899bb693b90b87eaa5d4d84e ""
  "/var/lib/texmf/fonts/map/pdftex/updmap/pdftex.map" 1617468679 128028 f533b797fba58d231669ea19e894e23e ""
  "/var/lib/texmf/web2c/pdftex/pdflatex.fmt" 1617468682 4791331 c505060f409a4cf70c91bff6283481ff ""
  "Modulabschluss.aux" 1617575148 3397 8182b1dd3784ca7c1b5992ce3adb1133 "pdflatex"
  "Modulabschluss.out" 1617575148 1089 36ea29eefc2203b8bf1ef13bffee1e83 "pdflatex"
  "Modulabschluss.tex" 1617575148 13706 93ac90859507ff2debf46fb7286eba2d ""
  "Modulabschluss.toc" 1617575148 1405 00de2e43e240a13e19faa874d474752f "pdflatex"
  (generated)
  "Modulabschluss.out"
  "Modulabschluss.toc"
  "Modulabschluss.log"
  "/home/undefined/HS-Anhalt/s3-webgis/03_Abschlussprojekt/025_Abschlussprojekt/Modulabschluss.log"
  "/home/undefined/HS-Anhalt/s3-webgis/03_Abschlussprojekt/025_Abschlussprojekt/Modulabschluss.pdf"
  "Modulabschluss.aux"
  "Modulabschluss.pdf"
