\relax 
\providecommand\hyper@newdestlabel[2]{}
\@nameuse{bbl@beforestart}
\bibstyle{unsrt}
\providecommand\HyperFirstAtBeginDocument{\AtBeginDocument}
\HyperFirstAtBeginDocument{\ifx\hyper@anchor\@undefined
\global\let\oldcontentsline\contentsline
\gdef\contentsline#1#2#3#4{\oldcontentsline{#1}{#2}{#3}}
\global\let\oldnewlabel\newlabel
\gdef\newlabel#1#2{\newlabelxx{#1}#2}
\gdef\newlabelxx#1#2#3#4#5#6{\oldnewlabel{#1}{{#2}{#3}}}
\AtEndDocument{\ifx\hyper@anchor\@undefined
\let\contentsline\oldcontentsline
\let\newlabel\oldnewlabel
\fi}
\fi}
\global\let\hyper@last\relax 
\gdef\HyperFirstAtBeginDocument#1{#1}
\providecommand\HyField@AuxAddToFields[1]{}
\providecommand\HyField@AuxAddToCoFields[2]{}
\babel@aux{nil}{}
\@writefile{toc}{\contentsline {section}{\numberline {1}Verwendete Frameworks}{2}{section.1}\protected@file@percent }
\@writefile{toc}{\contentsline {subsection}{\numberline {1.1}Angular}{2}{subsection.1.1}\protected@file@percent }
\@writefile{toc}{\contentsline {subsection}{\numberline {1.2}Material-Design}{2}{subsection.1.2}\protected@file@percent }
\@writefile{toc}{\contentsline {subsection}{\numberline {1.3}Openlayers}{2}{subsection.1.3}\protected@file@percent }
\@writefile{toc}{\contentsline {section}{\numberline {2}Setup}{2}{section.2}\protected@file@percent }
\@writefile{toc}{\contentsline {section}{\numberline {3}Beschreibung des Projekts}{3}{section.3}\protected@file@percent }
\@writefile{toc}{\contentsline {subsection}{\numberline {3.1}Komponenten}{3}{subsection.3.1}\protected@file@percent }
\@writefile{toc}{\contentsline {subsubsection}{\numberline {3.1.1}Table of Contents}{3}{subsubsection.3.1.1}\protected@file@percent }
\@writefile{toc}{\contentsline {subsubsection}{\numberline {3.1.2}image-view}{3}{subsubsection.3.1.2}\protected@file@percent }
\newlabel{component:imageView}{{3.1.2}{3}{image-view}{subsubsection.3.1.2}{}}
\@writefile{toc}{\contentsline {subsubsection}{\numberline {3.1.3}map-view}{3}{subsubsection.3.1.3}\protected@file@percent }
\newlabel{component:mapView}{{3.1.3}{3}{map-view}{subsubsection.3.1.3}{}}
\@writefile{toc}{\contentsline {subsubsection}{\numberline {3.1.4}side-nav-detail}{3}{subsubsection.3.1.4}\protected@file@percent }
\newlabel{component:sideNavDetail}{{3.1.4}{3}{side-nav-detail}{subsubsection.3.1.4}{}}
\@writefile{toc}{\contentsline {subsubsection}{\numberline {3.1.5}side-nav-features-detail}{4}{subsubsection.3.1.5}\protected@file@percent }
\newlabel{component:sideNavFeatureDetail}{{3.1.5}{4}{side-nav-features-detail}{subsubsection.3.1.5}{}}
\@writefile{toc}{\contentsline {subsubsection}{\numberline {3.1.6}side-nav-image-detail}{4}{subsubsection.3.1.6}\protected@file@percent }
\newlabel{component:sideNavImageDetail}{{3.1.6}{4}{side-nav-image-detail}{subsubsection.3.1.6}{}}
\@writefile{toc}{\contentsline {subsection}{\numberline {3.2}Services}{4}{subsection.3.2}\protected@file@percent }
\@writefile{toc}{\contentsline {subsubsection}{\numberline {3.2.1}mockup-data}{4}{subsubsection.3.2.1}\protected@file@percent }
\newlabel{service:mockupData}{{3.2.1}{4}{mockup-data}{subsubsection.3.2.1}{}}
\@writefile{toc}{\contentsline {subsubsection}{\numberline {3.2.2}side-nav}{4}{subsubsection.3.2.2}\protected@file@percent }
\newlabel{service:sideNav}{{3.2.2}{4}{side-nav}{subsubsection.3.2.2}{}}
\@writefile{toc}{\contentsline {section}{\numberline {4}Ausblick}{4}{section.4}\protected@file@percent }
